\relax 
\providecommand\hyper@newdestlabel[2]{}
\providecommand\HyperFirstAtBeginDocument{\AtBeginDocument}
\HyperFirstAtBeginDocument{\ifx\hyper@anchor\@undefined
\global\let\oldcontentsline\contentsline
\gdef\contentsline#1#2#3#4{\oldcontentsline{#1}{#2}{#3}}
\global\let\oldnewlabel\newlabel
\gdef\newlabel#1#2{\newlabelxx{#1}#2}
\gdef\newlabelxx#1#2#3#4#5#6{\oldnewlabel{#1}{{#2}{#3}}}
\AtEndDocument{\ifx\hyper@anchor\@undefined
\let\contentsline\oldcontentsline
\let\newlabel\oldnewlabel
\fi}
\fi}
\global\let\hyper@last\relax 
\gdef\HyperFirstAtBeginDocument#1{#1}
\providecommand\HyField@AuxAddToFields[1]{}
\providecommand\HyField@AuxAddToCoFields[2]{}
\providecommand \oddpage@label [2]{}
\@writefile{toc}{\contentsline {section}{\numberline {1}Introduction}{3}{section.1}\protected@file@percent }
\@writefile{toc}{\contentsline {section}{\numberline {2}Lancement de la démo}{4}{section.2}\protected@file@percent }
\@writefile{toc}{\contentsline {subsection}{\numberline {2.1}Vérification de l'alimentation du système}{4}{subsection.2.1}\protected@file@percent }
\@writefile{toc}{\contentsline {subsubsection}{\numberline {2.1.1}Alimentation des boards des niveaux supérieurs}{4}{subsubsection.2.1.1}\protected@file@percent }
\@writefile{lof}{\contentsline {figure}{\numberline {1}{\ignorespaces Alimentation du système - Etage supérieur\relax }}{4}{figure.caption.2}\protected@file@percent }
\providecommand*\caption@xref[2]{\@setref\relax\@undefined{#1}}
\newlabel{setup}{{1}{4}{Alimentation du système - Etage supérieur\relax }{figure.caption.2}{}}
\@writefile{toc}{\contentsline {subsubsection}{\numberline {2.1.2}Alimentation des moteurs}{5}{subsubsection.2.1.2}\protected@file@percent }
\@writefile{lof}{\contentsline {figure}{\numberline {2}{\ignorespaces Alimentation du système - Moteurs\relax }}{5}{figure.caption.3}\protected@file@percent }
\newlabel{setup}{{2}{5}{Alimentation du système - Moteurs\relax }{figure.caption.3}{}}
\@writefile{toc}{\contentsline {subsubsection}{\numberline {2.1.3}Batterie 12V connectée}{6}{subsubsection.2.1.3}\protected@file@percent }
\@writefile{lof}{\contentsline {figure}{\numberline {3}{\ignorespaces Alimentation du système - Batterie 12V\relax }}{6}{figure.caption.4}\protected@file@percent }
\newlabel{setup}{{3}{6}{Alimentation du système - Batterie 12V\relax }{figure.caption.4}{}}
\@writefile{toc}{\contentsline {subsection}{\numberline {2.2}Mise en route de la démo}{7}{subsection.2.2}\protected@file@percent }
\@writefile{toc}{\contentsline {subsubsection}{\numberline {2.2.1}Communication laptop/Agribot}{7}{subsubsection.2.2.1}\protected@file@percent }
\@writefile{toc}{\contentsline {subsubsection}{\numberline {2.2.2}Démarrage de la démo}{7}{subsubsection.2.2.2}\protected@file@percent }
\@writefile{toc}{\contentsline {section}{\numberline {3}Troubleshotting}{8}{section.3}\protected@file@percent }
\@writefile{toc}{\contentsline {subsection}{\numberline {3.1}RPlidar absent}{8}{subsection.3.1}\protected@file@percent }
\@writefile{lof}{\contentsline {figure}{\numberline {4}{\ignorespaces Connexion micro USB Rplidar\relax }}{8}{figure.caption.5}\protected@file@percent }
\newlabel{setup}{{4}{8}{Connexion micro USB Rplidar\relax }{figure.caption.5}{}}
\gdef \@abspage@last{8}
