\BOOKMARK [1][-]{section.1}{\376\377\000I\000n\000t\000r\000o\000d\000u\000c\000t\000i\000o\000n}{}% 1
\BOOKMARK [1][-]{section.2}{\376\377\000L\000a\000n\000c\000e\000m\000e\000n\000t\000\040\000d\000e\000\040\000l\000a\000\040\000d\000\351\000m\000o}{}% 2
\BOOKMARK [2][-]{subsection.2.1}{\376\377\000V\000\351\000r\000i\000f\000i\000c\000a\000t\000i\000o\000n\000\040\000d\000e\000\040\000l\000'\000a\000l\000i\000m\000e\000n\000t\000a\000t\000i\000o\000n\000\040\000d\000u\000\040\000s\000y\000s\000t\000\350\000m\000e}{section.2}% 3
\BOOKMARK [3][-]{subsubsection.2.1.1}{\376\377\000A\000l\000i\000m\000e\000n\000t\000a\000t\000i\000o\000n\000\040\000d\000e\000s\000\040\000b\000o\000a\000r\000d\000s\000\040\000d\000e\000s\000\040\000n\000i\000v\000e\000a\000u\000x\000\040\000s\000u\000p\000\351\000r\000i\000e\000u\000r\000s}{subsection.2.1}% 4
\BOOKMARK [3][-]{subsubsection.2.1.2}{\376\377\000A\000l\000i\000m\000e\000n\000t\000a\000t\000i\000o\000n\000\040\000d\000e\000s\000\040\000m\000o\000t\000e\000u\000r\000s}{subsection.2.1}% 5
\BOOKMARK [3][-]{subsubsection.2.1.3}{\376\377\000B\000a\000t\000t\000e\000r\000i\000e\000\040\0001\0002\000V\000\040\000c\000o\000n\000n\000e\000c\000t\000\351\000e}{subsection.2.1}% 6
\BOOKMARK [2][-]{subsection.2.2}{\376\377\000M\000i\000s\000e\000\040\000e\000n\000\040\000r\000o\000u\000t\000e\000\040\000d\000e\000\040\000l\000a\000\040\000d\000\351\000m\000o}{section.2}% 7
\BOOKMARK [3][-]{subsubsection.2.2.1}{\376\377\000C\000o\000m\000m\000u\000n\000i\000c\000a\000t\000i\000o\000n\000\040\000l\000a\000p\000t\000o\000p\000/\000A\000g\000r\000i\000b\000o\000t}{subsection.2.2}% 8
\BOOKMARK [3][-]{subsubsection.2.2.2}{\376\377\000D\000\351\000m\000a\000r\000r\000a\000g\000e\000\040\000d\000e\000\040\000l\000a\000\040\000d\000\351\000m\000o}{subsection.2.2}% 9
\BOOKMARK [1][-]{section.3}{\376\377\000T\000r\000o\000u\000b\000l\000e\000s\000h\000o\000t\000t\000i\000n\000g}{}% 10
\BOOKMARK [2][-]{subsection.3.1}{\376\377\000R\000P\000l\000i\000d\000a\000r\000\040\000a\000b\000s\000e\000n\000t}{section.3}% 11
