\relax 
\providecommand\zref@newlabel[2]{}
\providecommand\hyper@newdestlabel[2]{}
\providecommand\HyperFirstAtBeginDocument{\AtBeginDocument}
\HyperFirstAtBeginDocument{\ifx\hyper@anchor\@undefined
\global\let\oldcontentsline\contentsline
\gdef\contentsline#1#2#3#4{\oldcontentsline{#1}{#2}{#3}}
\global\let\oldnewlabel\newlabel
\gdef\newlabel#1#2{\newlabelxx{#1}#2}
\gdef\newlabelxx#1#2#3#4#5#6{\oldnewlabel{#1}{{#2}{#3}}}
\AtEndDocument{\ifx\hyper@anchor\@undefined
\let\contentsline\oldcontentsline
\let\newlabel\oldnewlabel
\fi}
\fi}
\global\let\hyper@last\relax 
\gdef\HyperFirstAtBeginDocument#1{#1}
\providecommand\HyField@AuxAddToFields[1]{}
\providecommand\HyField@AuxAddToCoFields[2]{}
\providecommand \oddpage@label [2]{}
\providecommand*\caption@xref[2]{\@setref\relax\@undefined{#1}}
\newlabel{fig:agribot_robot}{{\caption@xref {fig:agribot_robot}{ on input line 55}}{1}{}{figure.caption.1}{}}
\@writefile{toc}{\contentsline {section}{\numberline {1}Introduction}{4}{section.1}\protected@file@percent }
\@writefile{toc}{\contentsline {subsection}{\numberline {1.1}Cadre du projet}{4}{subsection.1.1}\protected@file@percent }
\@writefile{toc}{\contentsline {subsection}{\numberline {1.2}Analyse de la problématique}{4}{subsection.1.2}\protected@file@percent }
\@writefile{toc}{\contentsline {section}{\numberline {2}Structure hardware}{5}{section.2}\protected@file@percent }
\@writefile{toc}{\contentsline {subsection}{\numberline {2.1}Composants mécanique}{5}{subsection.2.1}\protected@file@percent }
\@writefile{toc}{\contentsline {subsubsection}{\numberline {2.1.1}Chassis et roues}{5}{subsubsection.2.1.1}\protected@file@percent }
\@writefile{lof}{\contentsline {figure}{\numberline {1}{\ignorespaces Chassis Agribot\relax }}{5}{figure.caption.4}\protected@file@percent }
\newlabel{setup}{{1}{5}{Chassis Agribot\relax }{figure.caption.4}{}}
\@writefile{lof}{\contentsline {figure}{\numberline {2}{\ignorespaces Chassis Agribot - Pièces\relax }}{5}{figure.caption.5}\protected@file@percent }
\newlabel{fig:chassis_compo}{{2}{5}{Chassis Agribot - Pièces\relax }{figure.caption.5}{}}
\@writefile{lof}{\contentsline {figure}{\numberline {3}{\ignorespaces Chassis Agribot - Mesures\relax }}{6}{figure.caption.6}\protected@file@percent }
\newlabel{fig:chassis_schem}{{3}{6}{Chassis Agribot - Mesures\relax }{figure.caption.6}{}}
\@writefile{toc}{\contentsline {subsubsection}{\numberline {2.1.2}Moteurs}{7}{subsubsection.2.1.2}\protected@file@percent }
\@writefile{lof}{\contentsline {figure}{\numberline {4}{\ignorespaces Moteurs avec encodeurs\relax }}{7}{figure.caption.7}\protected@file@percent }
\newlabel{fig:moteurs_pic}{{4}{7}{Moteurs avec encodeurs\relax }{figure.caption.7}{}}
\@writefile{lof}{\contentsline {figure}{\numberline {5}{\ignorespaces Moteurs avec encodeurs - Mesures\relax }}{7}{figure.caption.8}\protected@file@percent }
\newlabel{fig:moteurs_schem}{{5}{7}{Moteurs avec encodeurs - Mesures\relax }{figure.caption.8}{}}
\@writefile{toc}{\contentsline {subsection}{\numberline {2.2}Alimentation du système}{8}{subsection.2.2}\protected@file@percent }
\@writefile{toc}{\contentsline {subsubsection}{\numberline {2.2.1}Batterie moteurs}{8}{subsubsection.2.2.1}\protected@file@percent }
\@writefile{lof}{\contentsline {figure}{\numberline {6}{\ignorespaces Batterie moteurs\relax }}{8}{figure.caption.9}\protected@file@percent }
\newlabel{fig:Batterie_moteurs}{{6}{8}{Batterie moteurs\relax }{figure.caption.9}{}}
\@writefile{toc}{\contentsline {subsubsection}{\numberline {2.2.2}Batterie système}{8}{subsubsection.2.2.2}\protected@file@percent }
\@writefile{lof}{\contentsline {figure}{\numberline {7}{\ignorespaces Batterie système\relax }}{8}{figure.caption.10}\protected@file@percent }
\newlabel{fig:Batterie_systeme}{{7}{8}{Batterie système\relax }{figure.caption.10}{}}
\@writefile{toc}{\contentsline {subsection}{\numberline {2.3}Composants électroniques}{9}{subsection.2.3}\protected@file@percent }
\@writefile{toc}{\contentsline {subsubsection}{\numberline {2.3.1}Drivers moteurs - Cytron}{9}{subsubsection.2.3.1}\protected@file@percent }
\@writefile{lof}{\contentsline {figure}{\numberline {8}{\ignorespaces Drivers Moteurs Cytron MD10C r3\relax }}{9}{figure.caption.11}\protected@file@percent }
\newlabel{fig:cytron}{{8}{9}{Drivers Moteurs Cytron MD10C r3\relax }{figure.caption.11}{}}
\@writefile{lof}{\contentsline {figure}{\numberline {9}{\ignorespaces Drivers Moteurs - câblage\relax }}{9}{figure.caption.12}\protected@file@percent }
\newlabel{fig:cytron_md10CR3_mesures}{{9}{9}{Drivers Moteurs - câblage\relax }{figure.caption.12}{}}
\@writefile{toc}{\contentsline {subsubsection}{\numberline {2.3.2}i2cPWM board - ServoShield}{10}{subsubsection.2.3.2}\protected@file@percent }
\@writefile{lof}{\contentsline {figure}{\numberline {10}{\ignorespaces i2cPWM board - ServoShield\relax }}{10}{figure.caption.13}\protected@file@percent }
\newlabel{fig:ServoShield}{{10}{10}{i2cPWM board - ServoShield\relax }{figure.caption.13}{}}
\@writefile{lof}{\contentsline {figure}{\numberline {11}{\ignorespaces i2cPWM board - Dimensions\relax }}{10}{figure.caption.14}\protected@file@percent }
\newlabel{fig:ServoShield_dim}{{11}{10}{i2cPWM board - Dimensions\relax }{figure.caption.14}{}}
\@writefile{toc}{\contentsline {subsubsection}{\numberline {2.3.3}REDS sensor board}{11}{subsubsection.2.3.3}\protected@file@percent }
\@writefile{lof}{\contentsline {figure}{\numberline {12}{\ignorespaces REDS sensor board\relax }}{11}{figure.caption.15}\protected@file@percent }
\newlabel{fig:reds_board}{{12}{11}{REDS sensor board\relax }{figure.caption.15}{}}
\@writefile{toc}{\contentsline {subsubsection}{\numberline {2.3.4}Raspberry Pi 4}{12}{subsubsection.2.3.4}\protected@file@percent }
\@writefile{lof}{\contentsline {figure}{\numberline {13}{\ignorespaces Raspberry Pi 4\relax }}{12}{figure.caption.16}\protected@file@percent }
\newlabel{fig:rpi4}{{13}{12}{Raspberry Pi 4\relax }{figure.caption.16}{}}
\@writefile{lof}{\contentsline {figure}{\numberline {14}{\ignorespaces Raspberry Pi 4 - Mesures\relax }}{12}{figure.caption.17}\protected@file@percent }
\newlabel{fig:rpi4_dim}{{14}{12}{Raspberry Pi 4 - Mesures\relax }{figure.caption.17}{}}
\@writefile{toc}{\contentsline {subsection}{\numberline {2.4}Capteurs}{13}{subsection.2.4}\protected@file@percent }
\@writefile{toc}{\contentsline {subsubsection}{\numberline {2.4.1}Scanner laser 360° - RPLidar A1}{13}{subsubsection.2.4.1}\protected@file@percent }
\@writefile{lof}{\contentsline {figure}{\numberline {15}{\ignorespaces RPLidar A1\relax }}{13}{figure.caption.18}\protected@file@percent }
\newlabel{fig:rplidarA1}{{15}{13}{RPLidar A1\relax }{figure.caption.18}{}}
\@writefile{lof}{\contentsline {figure}{\numberline {16}{\ignorespaces RPLidar A1 - Mesures\relax }}{13}{figure.caption.19}\protected@file@percent }
\newlabel{fig:rplidarA1_mesures}{{16}{13}{RPLidar A1 - Mesures\relax }{figure.caption.19}{}}
\@writefile{toc}{\contentsline {subsubsection}{\numberline {2.4.2}GNSS IMU - Xsens MTI 680G}{14}{subsubsection.2.4.2}\protected@file@percent }
\@writefile{lof}{\contentsline {figure}{\numberline {17}{\ignorespaces Xsens MTI 680G\relax }}{14}{figure.caption.20}\protected@file@percent }
\newlabel{fig:GNSS_IMU}{{17}{14}{Xsens MTI 680G\relax }{figure.caption.20}{}}
\@writefile{lof}{\contentsline {figure}{\numberline {18}{\ignorespaces Xsens MTI 680G - Mesures\relax }}{14}{figure.caption.21}\protected@file@percent }
\newlabel{fig:GNSS_IMU_dim}{{18}{14}{Xsens MTI 680G - Mesures\relax }{figure.caption.21}{}}
\@writefile{toc}{\contentsline {subsubsection}{\numberline {2.4.3}Camera - T265}{15}{subsubsection.2.4.3}\protected@file@percent }
\@writefile{lof}{\contentsline {figure}{\numberline {19}{\ignorespaces RealSense T265\relax }}{15}{figure.caption.22}\protected@file@percent }
\newlabel{fig:t265}{{19}{15}{RealSense T265\relax }{figure.caption.22}{}}
\@writefile{lof}{\contentsline {figure}{\numberline {20}{\ignorespaces RealSense T265 - Mesures\relax }}{15}{figure.caption.23}\protected@file@percent }
\newlabel{fig:t265_dim}{{20}{15}{RealSense T265 - Mesures\relax }{figure.caption.23}{}}
\@writefile{toc}{\contentsline {subsubsection}{\numberline {2.4.4}Ecran tactile}{15}{subsubsection.2.4.4}\protected@file@percent }
\@writefile{lof}{\contentsline {figure}{\numberline {21}{\ignorespaces Ecran tactile\relax }}{15}{figure.caption.24}\protected@file@percent }
\newlabel{fig:ecran}{{21}{15}{Ecran tactile\relax }{figure.caption.24}{}}
\@writefile{toc}{\contentsline {section}{\numberline {3}Structure Agribot}{16}{section.3}\protected@file@percent }
\@writefile{toc}{\contentsline {subsection}{\numberline {3.1}Robot final}{16}{subsection.3.1}\protected@file@percent }
\@writefile{lof}{\contentsline {figure}{\numberline {22}{\ignorespaces Agribot - robot\relax }}{16}{figure.caption.25}\protected@file@percent }
\newlabel{fig:agribot_full_b}{{22}{16}{Agribot - robot\relax }{figure.caption.25}{}}
\@writefile{toc}{\contentsline {subsection}{\numberline {3.2}Etage 1}{17}{subsection.3.2}\protected@file@percent }
\@writefile{lof}{\contentsline {figure}{\numberline {23}{\ignorespaces Agribot - Etage 1\relax }}{17}{figure.caption.26}\protected@file@percent }
\newlabel{fig:agribotE1}{{23}{17}{Agribot - Etage 1\relax }{figure.caption.26}{}}
\@writefile{toc}{\contentsline {subsection}{\numberline {3.3}Etage 2}{18}{subsection.3.3}\protected@file@percent }
\@writefile{lof}{\contentsline {figure}{\numberline {24}{\ignorespaces Agribot - Etage 2\relax }}{18}{figure.caption.27}\protected@file@percent }
\newlabel{fig:agribotE2}{{24}{18}{Agribot - Etage 2\relax }{figure.caption.27}{}}
\@writefile{toc}{\contentsline {subsection}{\numberline {3.4}Etage 3}{19}{subsection.3.4}\protected@file@percent }
\@writefile{lof}{\contentsline {figure}{\numberline {25}{\ignorespaces Agribot - Etage 3\relax }}{19}{figure.caption.28}\protected@file@percent }
\newlabel{fig:agribotE3}{{25}{19}{Agribot - Etage 3\relax }{figure.caption.28}{}}
\@writefile{toc}{\contentsline {subsection}{\numberline {3.5}Schéma bloc Agribot}{20}{subsection.3.5}\protected@file@percent }
\@writefile{lof}{\contentsline {figure}{\numberline {26}{\ignorespaces Schéma bloc Agribot\relax }}{20}{figure.caption.29}\protected@file@percent }
\newlabel{fig:agribot_global_blocs}{{26}{20}{Schéma bloc Agribot\relax }{figure.caption.29}{}}
\@writefile{toc}{\contentsline {subsection}{\numberline {3.6}Schéma du câblage}{21}{subsection.3.6}\protected@file@percent }
\@writefile{toc}{\contentsline {section}{\numberline {4}Software}{22}{section.4}\protected@file@percent }
\@writefile{toc}{\contentsline {subsection}{\numberline {4.1}Environnement - ROS}{22}{subsection.4.1}\protected@file@percent }
\@writefile{toc}{\contentsline {subsubsection}{\numberline {4.1.1}Qu'est ce que ROS ?}{22}{subsubsection.4.1.1}\protected@file@percent }
\@writefile{toc}{\contentsline {subsubsection}{\numberline {4.1.2}Pourquoi ROS ?}{22}{subsubsection.4.1.2}\protected@file@percent }
\@writefile{toc}{\contentsline {subsubsection}{\numberline {4.1.3}Définitions}{22}{subsubsection.4.1.3}\protected@file@percent }
\@writefile{toc}{\contentsline {subsection}{\numberline {4.2}Architecture software d'Agribot}{23}{subsection.4.2}\protected@file@percent }
\@writefile{toc}{\contentsline {subsubsection}{\numberline {4.2.1}Robot REDS}{23}{subsubsection.4.2.1}\protected@file@percent }
\@writefile{toc}{\contentsline {subsubsection}{\numberline {4.2.2}Architecture software globale}{23}{subsubsection.4.2.2}\protected@file@percent }
\@writefile{lof}{\contentsline {figure}{\numberline {27}{\ignorespaces Blocs software\relax }}{23}{figure.caption.30}\protected@file@percent }
\newlabel{fig:blocs_sw}{{27}{23}{Blocs software\relax }{figure.caption.30}{}}
\@writefile{toc}{\contentsline {subsubsection}{\numberline {4.2.3}Architecture base mobile}{24}{subsubsection.4.2.3}\protected@file@percent }
\@writefile{lof}{\contentsline {figure}{\numberline {28}{\ignorespaces Noeuds de la base mobile\relax }}{24}{figure.caption.31}\protected@file@percent }
\newlabel{fig:mobile_base_nodes}{{28}{24}{Noeuds de la base mobile\relax }{figure.caption.31}{}}
\@writefile{bcl}{\contentsline {bclogo}{Twist Message}{24}{bclogocompteur.1}\protected@file@percent }
\pgfsyspdfmark {pgfid1}{4661700}{11721714}
\@writefile{lof}{\contentsline {figure}{\numberline {29}{\ignorespaces Schéma du fonctionnement des ROS controller\relax }}{25}{figure.caption.32}\protected@file@percent }
\newlabel{fig:ros_ctrl_func}{{29}{25}{Schéma du fonctionnement des ROS controller\relax }{figure.caption.32}{}}
\@writefile{lof}{\contentsline {figure}{\numberline {30}{\ignorespaces Schéma du fonctionnement des ROS controller\relax }}{25}{figure.caption.33}\protected@file@percent }
\newlabel{fig:ros_hwi_func}{{30}{25}{Schéma du fonctionnement des ROS controller\relax }{figure.caption.33}{}}
\@writefile{toc}{\contentsline {subsubsection}{\numberline {4.2.4}Architecture de la navigation}{26}{subsubsection.4.2.4}\protected@file@percent }
\@writefile{lof}{\contentsline {figure}{\numberline {31}{\ignorespaces Schéma bloc de la navigation\relax }}{26}{figure.caption.34}\protected@file@percent }
\newlabel{fig:bloc_nav}{{31}{26}{Schéma bloc de la navigation\relax }{figure.caption.34}{}}
\@writefile{lof}{\contentsline {figure}{\numberline {32}{\ignorespaces Modifications pour la navigation en intérieur\relax }}{27}{figure.caption.35}\protected@file@percent }
\newlabel{fig:bloc_nav_indoor}{{32}{27}{Modifications pour la navigation en intérieur\relax }{figure.caption.35}{}}
\@writefile{lof}{\contentsline {figure}{\numberline {33}{\ignorespaces Structure software pour la navigation en intérieur\relax }}{28}{figure.caption.36}\protected@file@percent }
\newlabel{fig:agribot_indoor_sw}{{33}{28}{Structure software pour la navigation en intérieur\relax }{figure.caption.36}{}}
\gdef \@abspage@last{31}
